module jsnow19890828/clickhouse-app

go 1.20

require (
	github.com/ClickHouse/clickhouse-go/v2 v2.9.2
	github.com/gin-gonic/gin v1.9.0
	github.com/google/uuid v1.3.0
	github.com/ilyakaznacheev/cleanenv v1.4.2
)

require (
	github.com/BurntSushi/toml v1.1.0 // indirect
	github.com/ClickHouse/ch-go v0.52.1 // indirect
	github.com/andybalholm/brotli v1.0.5 // indirect
	github.com/bytedance/sonic v1.8.0 // indirect
	github.com/chenzhuoyu/base64x v0.0.0-20221115062448-fe3a3abad311 // indirect
	github.com/gin-contrib/sse v0.1.0 // indirect
	github.com/go-faster/city v1.0.1 // indirect
	github.com/go-faster/errors v0.6.1 // indirect
	github.com/go-playground/locales v0.14.1 // indirect
	github.com/go-playground/universal-translator v0.18.1 // indirect
	github.com/go-playground/validator/v10 v10.11.2 // indirect
	github.com/goccy/go-json v0.10.0 // indirect
	github.com/joho/godotenv v1.4.0 // indirect
	github.com/json-iterator/go v1.1.12 // indirect
	github.com/klauspost/compress v1.15.15 // indirect
	github.com/klauspost/cpuid/v2 v2.0.9 // indirect
	github.com/leodido/go-urn v1.2.1 // indirect
	github.com/mattn/go-isatty v0.0.17 // indirect
	github.com/modern-go/concurrent v0.0.0-20180228061459-e0a39a4cb421 // indirect
	github.com/modern-go/reflect2 v1.0.2 // indirect
	github.com/paulmach/orb v0.9.0 // indirect
	github.com/pelletier/go-toml/v2 v2.0.6 // indirect
	github.com/pierrec/lz4/v4 v4.1.17 // indirect
	github.com/pkg/errors v0.9.1 // indirect
	github.com/segmentio/asm v1.2.0 // indirect
	github.com/shopspring/decimal v1.3.1 // indirect
	github.com/twitchyliquid64/golang-asm v0.15.1 // indirect
	github.com/ugorji/go/codec v1.2.9 // indirect
	go.opentelemetry.io/otel v1.13.0 // indirect
	go.opentelemetry.io/otel/trace v1.13.0 // indirect
	golang.org/x/arch v0.0.0-20210923205945-b76863e36670 // indirect
	golang.org/x/crypto v0.5.0 // indirect
	golang.org/x/net v0.7.0 // indirect
	golang.org/x/sys v0.5.0 // indirect
	golang.org/x/text v0.7.0 // indirect
	google.golang.org/protobuf v1.28.1 // indirect
	gopkg.in/yaml.v3 v3.0.1 // indirect
	olympos.io/encoding/edn v0.0.0-20201019073823-d3554ca0b0a3 // indirect
)
